Eurobarometer - Survey
…
Data was taken from here with data format “.sav”

Date(s) of Data Collection: 12.01.2023 - 06.02.2023

GESIS, Cologne. ZA7953 Data file Version 1.0.0, https://doi.org/10.4232/1.14081 Other Title (type): Standard Eurobarometer 98 (COVID-19 Pandemic) (Subtitle)

Abstract: Since the early 1970s the European Commission´s Standard & Special Eurobarometer are regularly monitoring the public opinion in the European Union member countries. Principal investigators are the Directorate-General Communication and on occasion other departments of the European Commission or the European Parliament. Over time, candidate and accession countries were included in the Standard Eurobarometer Series. Selected questions or modules may not have been surveyed in each sample. Please consult the basic questionnaire for more information on country filter instructions or other questionnaire routing filters. In this study all question modules are in the standard Eurobarometer context: 1. Standard EU and trend questions, 2. Europeans’ priorities, 3. The EU and the Coronavirus pandemic, 4. European citizenship, 5. The EU’s response to the war in Ukraine, 6. Media use and political information.

library(retroharmonize)
tmp <- tempfile(fileext = ".sav")
haven::write_sav(mtcars, tmp)
haven::read_sav(tmp)

# A tibble: 32 × 11
     mpg   cyl  disp    hp  drat    wt  qsec    vs    am  gear  carb
   <dbl> <dbl> <dbl> <dbl> <dbl> <dbl> <dbl> <dbl> <dbl> <dbl> <dbl>
 1  21       6  160    110  3.9   2.62  16.5     0     1     4     4
 2  21       6  160    110  3.9   2.88  17.0     0     1     4     4
 3  22.8     4  108     93  3.85  2.32  18.6     1     1     4     1
 4  21.4     6  258    110  3.08  3.22  19.4     1     0     3     1
 5  18.7     8  360    175  3.15  3.44  17.0     0     0     3     2
 6  18.1     6  225    105  2.76  3.46  20.2     1     0     3     1
 7  14.3     8  360    245  3.21  3.57  15.8     0     0     3     4
 8  24.4     4  147.    62  3.69  3.19  20       1     0     4     2
 9  22.8     4  141.    95  3.92  3.15  22.9     1     0     4     2
10  19.2     6  168.   123  3.92  3.44  18.3     1     0     4     4
# ℹ 22 more rows
…
